Battle Spirits: Burning Soul
テスト
20
http://images.com/valid.png
27737
9804
21020
2015-04-01
09:30
TV Tokyo

Yahari Ore no Seishun Love Comedy wa Machigatteiru. Zoku
やはり俺の青春ラブコメはまちがっている。続
13
http://images.com/valid.png
23847
20000
20698
2015-04-02
16:46
TBS
